<?xml version="1.0" encoding="UTF-8" standalone="no"?>
<svg 
    role="img" 
    xmlns="http://www.w3.org/2000/svg" 
    width="1000mm"
    height="1000mm"
    viewBox="0 0 1000 1000"
    style="max-width:1.6em; height: auto;">
    
    <path 
        id="path" 
        style="opacity:1;vector-effect:none;fill:#000000;fill-opacity:1;"
        d=" M 936 579C 941 576 943 570 941 565C 941 565 902 446 902 446C 902 446 620 809 620 809C 620 809 619 810 619 810C 619 810 936 579 936 579M 381 810C 381 810 98 446 98 446C 98 446 59 565 59 565C 57 570 59 576 63 579M 121 375C 121 375 297 375 297 375C 297 375 209 104 209 104M 361 421C 361 421 500 850 500 850C 500 850 552 690 552 690C 552 690 639 421 639 421M 703 375C 703 375 879 375 879 375C 879 375 791 104 791 104M 591 770C 591 770 864 421 864 421C 864 421 688 421 688 421C 688 421 683 437 683 437C 683 437 562 807 562 807M 136 421C 136 421 438 807 438 807C 438 807 312 421 312 421M 985 551C 993 575 984 602 964 616C 964 616 513 943 513 943C 505 949 494 949 486 943C 486 943 36 616 36 616C 16 602 7 575 15 551C 15 551 67 391 67 391C 67 391 68 391 68 390C 68 390 170 74 170 74C 176 57 191 46 209 46C 209 46 209 46 209 46C 227 46 242 57 248 74C 248 74 346 375 346 375C 346 375 654 375 654 375C 654 375 752 74 752 74C 758 57 773 46 791 46C 808 46 824 57 830 74C 830 74 932 390 932 390C 933 391 933 392 934 394C 934 394 985 551 985 551"
        transform="">
    </path>    
</svg>